﻿"CID","name","gender","dzongkhag","gewog","academy","zone"
"1100000598","Student 00598","M","Trashiyangtse","Yangtse","Gyalpozhing Academy","East"
"1100000600","Student 00600","M","Trashiyangtse","Yangtse","Gyalpozhing Academy","East"
"1100000602","Student 00602","M","Trashiyangtse","Yangtse","Gyalpozhing Academy","East"
"1100000603","Student 00603","M","Trashiyangtse","Yangtse","Gyalpozhing Academy","East"
"1100000604","Student 00604","M","Trashiyangtse","Yangtse","Gyalpozhing Academy","East"
"1100000605","Student 00605","M","Trashiyangtse","Yangtse","Gyalpozhing Academy","East"
"1100000606","Student 00606","M","Trashiyangtse","Yangtse","Gyalpozhing Academy","East"
"1100000608","Student 00608","M","Trashiyangtse","Yangtse","Gyalpozhing Academy","East"
"1100000610","Student 00610","M","Trashiyangtse","Yangtse","Gyalpozhing Academy","East"
"1100000612","Student 00612","M","Trashiyangtse","Yangtse","Gyalpozhing Academy","East"
"1100000615","Student 00615","M","Trashiyangtse","Yangtse","Gyalpozhing Academy","East"
"1100000617","Student 00617","M","Trashiyangtse","Yangtse","Gyalpozhing Academy","East"
"1100000620","Student 00620","M","Trashiyangtse","Yangtse","Gyalpozhing Academy","East"
"1100000622","Student 00622","M","Trashiyangtse","Yangtse","Gyalpozhing Academy","East"
"1100000627","Student 00627","M","Trashiyangtse","Yangtse","Gyalpozhing Academy","East"
"1100000631","Student 00631","M","Trashiyangtse","Yangtse","Gyalpozhing Academy","East"
"1100000632","Student 00632","M","Trashiyangtse","Yangtse","Gyalpozhing Academy","East"
"1100000635","Student 00635","M","Trashiyangtse","Yangtse","Gyalpozhing Academy","East"
"1100000636","Student 00636","M","Trashiyangtse","Yangtse","Gyalpozhing Academy","East"
"1100000638","Student 00638","M","Trashiyangtse","Yangtse","Gyalpozhing Academy","East"
"1100000642","Student 00642","M","Trashiyangtse","Yangtse","Gyalpozhing Academy","East"
"1100000643","Student 00643","M","Trashiyangtse","Yangtse","Gyalpozhing Academy","East"
"1100000644","Student 00644","M","Trashiyangtse","Yangtse","Gyalpozhing Academy","East"
"1100000645","Student 00645","M","Trashiyangtse","Yangtse","Gyalpozhing Academy","East"
"1100000647","Student 00647","M","Trashiyangtse","Yangtse","Gyalpozhing Academy","East"
"1100000648","Student 00648","M","Trashiyangtse","Yangtse","Gyalpozhing Academy","East"
"1100000649","Student 00649","M","Trashiyangtse","Yangtse","Gyalpozhing Academy","East"
"1100001855","Student 01855","M","Bumthang","Chhoekhor","Gyalpozhing Academy","South"
"1100001856","Student 01856","M","Bumthang","Chhoekhor","Gyalpozhing Academy","South"
"1100001857","Student 01857","M","Bumthang","Chhoekhor","Gyalpozhing Academy","South"
"1100001858","Student 01858","M","Bumthang","Chhoekhor","Gyalpozhing Academy","South"
"1100001862","Student 01862","F","Bumthang","Chhoekhor","Gyalpozhing Academy","South"
"1100001863","Student 01863","F","Bumthang","Chhoekhor","Gyalpozhing Academy","South"
"1100001864","Student 01864","F","Bumthang","Chhoekhor","Gyalpozhing Academy","South"
"1100001865","Student 01865","F","Bumthang","Chhoekhor","Gyalpozhing Academy","South"
"1100001866","Student 01866","F","Bumthang","Chhoekhor","Gyalpozhing Academy","South"
"1100001867","Student 01867","F","Bumthang","Chhoekhor","Gyalpozhing Academy","South"
"1100001868","Student 01868","F","Bumthang","Chhoekhor","Gyalpozhing Academy","South"
"1100001869","Student 01869","F","Bumthang","Chhoekhor","Gyalpozhing Academy","South"
"1100001870","Student 01870","F","Bumthang","Chhoekhor","Gyalpozhing Academy","South"
"1100001871","Student 01871","F","Bumthang","Chhoekhor","Gyalpozhing Academy","South"
"1100001872","Student 01872","F","Bumthang","Chhoekhor","Gyalpozhing Academy","South"
"1100001873","Student 01873","F","Bumthang","Chhoekhor","Gyalpozhing Academy","South"
"1100001874","Student 01874","F","Bumthang","Chhoekhor","Gyalpozhing Academy","South"
"1100001875","Student 01875","F","Bumthang","Chhoekhor","Gyalpozhing Academy","South"
"1100001876","Student 01876","F","Bumthang","Chhoekhor","Gyalpozhing Academy","South"
"1100001877","Student 01877","F","Bumthang","Chhoekhor","Gyalpozhing Academy","South"
"1100001878","Student 01878","F","Bumthang","Chhoekhor","Gyalpozhing Academy","South"
"1100001879","Student 01879","F","Bumthang","Chhoekhor","Gyalpozhing Academy","South"
"1100001880","Student 01880","M","Bumthang","Chhoekhor","Gyalpozhing Academy","South"
"1100001881","Student 01881","M","Bumthang","Chhoekhor","Gyalpozhing Academy","South"
"1100001882","Student 01882","M","Bumthang","Chhoekhor","Gyalpozhing Academy","South"
"1100001883","Student 01883","M","Bumthang","Chhoekhor","Gyalpozhing Academy","South"
"1100001884","Student 01884","M","Bumthang","Chhoekhor","Gyalpozhing Academy","South"
"1100001885","Student 01885","M","Bumthang","Chhoekhor","Gyalpozhing Academy","South"
"1100001886","Student 01886","M","Bumthang","Chhoekhor","Gyalpozhing Academy","South"
"1100001887","Student 01887","M","Bumthang","Chhoekhor","Gyalpozhing Academy","South"
"1100001888","Student 01888","M","Bumthang","Chhoekhor","Gyalpozhing Academy","South"
"1100001889","Student 01889","M","Bumthang","Chhoekhor","Gyalpozhing Academy","South"
"1100001890","Student 01890","M","Bumthang","Chhoekhor","Gyalpozhing Academy","South"
"1100001891","Student 01891","M","Bumthang","Chhoekhor","Gyalpozhing Academy","South"
"1100001892","Student 01892","M","Bumthang","Chhoekhor","Gyalpozhing Academy","South"
"1100001893","Student 01893","M","Bumthang","Chhoekhor","Gyalpozhing Academy","South"
"1100001894","Student 01894","M","Bumthang","Chhoekhor","Gyalpozhing Academy","South"
"1100001895","Student 01895","F","Bumthang","Chhoekhor","Gyalpozhing Academy","South"
"1100001896","Student 01896","F","Bumthang","Chhoekhor","Gyalpozhing Academy","South"
"1100001897","Student 01897","F","Bumthang","Chhoekhor","Gyalpozhing Academy","South"
"1100001898","Student 01898","F","Bumthang","Chhoekhor","Gyalpozhing Academy","South"
"1100001899","Student 01899","F","Bumthang","Chhoekhor","Gyalpozhing Academy","South"
"1100001900","Student 01900","F","Bumthang","Chhoekhor","Gyalpozhing Academy","South"
"1100001901","Student 01901","F","Bumthang","Chhoekhor","Gyalpozhing Academy","South"
"1100001902","Student 01902","F","Bumthang","Chhoekhor","Gyalpozhing Academy","South"
"1100001903","Student 01903","F","Bumthang","Chhoekhor","Gyalpozhing Academy","South"
"1100001904","Student 01904","F","Bumthang","Chhoekhor","Gyalpozhing Academy","South"
"1100001905","Student 01905","F","Bumthang","Chhoekhor","Gyalpozhing Academy","South"
"1100001906","Student 01906","F","Bumthang","Chhoekhor","Gyalpozhing Academy","South"
"1100001907","Student 01907","F","Bumthang","Chhoekhor","Gyalpozhing Academy","South"
"1100001908","Student 01908","F","Bumthang","Chhoekhor","Gyalpozhing Academy","South"
"1100001909","Student 01909","F","Bumthang","Chhoekhor","Gyalpozhing Academy","South"
"1100001910","Student 01910","F","Bumthang","Chhoekhor","Gyalpozhing Academy","South"
"1100001911","Student 01911","F","Bumthang","Chhoekhor","Gyalpozhing Academy","South"
"1100001912","Student 01912","M","Bumthang","Chhoekhor","Gyalpozhing Academy","South"
"1100001913","Student 01913","F","Bumthang","Chhoekhor","Gyalpozhing Academy","South"
"1100002287","Student 02287","F","Mongar","Mongar","Gyalpozhing Academy","East"
"1100002288","Student 02288","F","Mongar","Mongar","Gyalpozhing Academy","East"
"1100002289","Student 02289","M","Mongar","Mongar","Gyalpozhing Academy","East"
"1100002290","Student 02290","M","Mongar","Mongar","Gyalpozhing Academy","East"
"1100002291","Student 02291","M","Mongar","Mongar","Gyalpozhing Academy","East"
"1100002292","Student 02292","M","Mongar","Mongar","Gyalpozhing Academy","East"
"1100002293","Student 02293","M","Mongar","Mongar","Gyalpozhing Academy","East"
"1100002294","Student 02294","M","Mongar","Mongar","Gyalpozhing Academy","East"
"1100002295","Student 02295","M","Mongar","Mongar","Gyalpozhing Academy","East"
"1100002296","Student 02296","M","Mongar","Mongar","Gyalpozhing Academy","East"
"1100002297","Student 02297","M","Mongar","Mongar","Gyalpozhing Academy","East"
"1100002298","Student 02298","M","Mongar","Mongar","Gyalpozhing Academy","East"
"1100002299","Student 02299","M","Mongar","Mongar","Gyalpozhing Academy","East"
"1100002300","Student 02300","M","Mongar","Mongar","Gyalpozhing Academy","East"
"1100002301","Student 02301","F","Mongar","Mongar","Gyalpozhing Academy","East"
"1100002302","Student 02302","F","Mongar","Mongar","Gyalpozhing Academy","East"
"1100002303","Student 02303","F","Mongar","Mongar","Gyalpozhing Academy","East"
"1100002304","Student 02304","F","Mongar","Mongar","Gyalpozhing Academy","East"
"1100002305","Student 02305","F","Mongar","Mongar","Gyalpozhing Academy","East"
"1100002306","Student 02306","F","Mongar","Mongar","Gyalpozhing Academy","East"
"1100002307","Student 02307","F","Mongar","Mongar","Gyalpozhing Academy","East"
"1100002308","Student 02308","F","Mongar","Mongar","Gyalpozhing Academy","East"
"1100002309","Student 02309","F","Mongar","Mongar","Gyalpozhing Academy","East"
"1100002310","Student 02310","F","Mongar","Mongar","Gyalpozhing Academy","East"
"1100002311","Student 02311","F","Mongar","Mongar","Gyalpozhing Academy","East"
"1100002312","Student 02312","F","Mongar","Mongar","Gyalpozhing Academy","East"
"1100002313","Student 02313","F","Mongar","Mongar","Gyalpozhing Academy","East"
"1100002314","Student 02314","F","Mongar","Mongar","Gyalpozhing Academy","East"
"1100002315","Student 02315","F","Mongar","Mongar","Gyalpozhing Academy","East"
"1100002316","Student 02316","M","Mongar","Mongar","Gyalpozhing Academy","East"
"1100002317","Student 02317","M","Mongar","Mongar","Gyalpozhing Academy","East"
"1100002318","Student 02318","M","Mongar","Mongar","Gyalpozhing Academy","East"
"1100002319","Student 02319","M","Mongar","Mongar","Gyalpozhing Academy","East"
"1100002320","Student 02320","M","Mongar","Mongar","Gyalpozhing Academy","East"
"1100002321","Student 02321","M","Mongar","Mongar","Gyalpozhing Academy","East"
"1100002322","Student 02322","M","Mongar","Mongar","Gyalpozhing Academy","East"
"1100002323","Student 02323","M","Mongar","Mongar","Gyalpozhing Academy","East"
"1100002324","Student 02324","M","Mongar","Mongar","Gyalpozhing Academy","East"
"1100002325","Student 02325","M","Mongar","Mongar","Gyalpozhing Academy","East"
"1100002326","Student 02326","M","Mongar","Mongar","Gyalpozhing Academy","East"
"1100002327","Student 02327","M","Mongar","Mongar","Gyalpozhing Academy","East"
"1100002328","Student 02328","M","Mongar","Mongar","Gyalpozhing Academy","East"
"1100002329","Student 02329","F","Mongar","Mongar","Gyalpozhing Academy","East"
"1100002330","Student 02330","F","Mongar","Mongar","Gyalpozhing Academy","East"
"1100002331","Student 02331","F","Mongar","Mongar","Gyalpozhing Academy","East"
"1100002332","Student 02332","F","Mongar","Mongar","Gyalpozhing Academy","East"
"1100002333","Student 02333","F","Mongar","Mongar","Gyalpozhing Academy","East"
"1100002334","Student 02334","F","Mongar","Mongar","Gyalpozhing Academy","East"
"1100002335","Student 02335","F","Mongar","Mongar","Gyalpozhing Academy","East"
"1100002336","Student 02336","F","Mongar","Mongar","Gyalpozhing Academy","East"
"1100002337","Student 02337","F","Mongar","Mongar","Gyalpozhing Academy","East"
"1100002338","Student 02338","F","Mongar","Mongar","Gyalpozhing Academy","East"
"1100002339","Student 02339","F","Mongar","Mongar","Gyalpozhing Academy","East"
"1100002340","Student 02340","F","Mongar","Mongar","Gyalpozhing Academy","East"
"1100002341","Student 02341","F","Mongar","Mongar","Gyalpozhing Academy","East"
"1100002342","Student 02342","F","Mongar","Mongar","Gyalpozhing Academy","East"
"1100002343","Student 02343","F","Mongar","Mongar","Gyalpozhing Academy","East"
"1100002344","Student 02344","F","Mongar","Mongar","Gyalpozhing Academy","East"
"1100002345","Student 02345","F","Mongar","Mongar","Gyalpozhing Academy","East"
"1100002346","Student 02346","F","Mongar","Mongar","Gyalpozhing Academy","East"
"1100002347","Student 02347","F","Mongar","Mongar","Gyalpozhing Academy","East"
"1100003140","Student 03140","F","Lhuntse","Gangzur","Gyalpozhing Academy","East"
"1100003141","Student 03141","F","Lhuntse","Gangzur","Gyalpozhing Academy","East"
"1100003142","Student 03142","F","Lhuntse","Gangzur","Gyalpozhing Academy","East"
"1100003143","Student 03143","F","Lhuntse","Gangzur","Gyalpozhing Academy","East"
"1100003144","Student 03144","F","Lhuntse","Gangzur","Gyalpozhing Academy","East"
"1100003145","Student 03145","F","Lhuntse","Gangzur","Gyalpozhing Academy","East"
"1100003146","Student 03146","F","Lhuntse","Gangzur","Gyalpozhing Academy","East"
"1100003147","Student 03147","F","Lhuntse","Gangzur","Gyalpozhing Academy","East"
"1100003148","Student 03148","F","Lhuntse","Gangzur","Gyalpozhing Academy","East"
"1100003149","Student 03149","F","Lhuntse","Gangzur","Gyalpozhing Academy","East"
"1100003150","Student 03150","F","Lhuntse","Gangzur","Gyalpozhing Academy","East"
"1100003151","Student 03151","F","Lhuntse","Gangzur","Gyalpozhing Academy","East"
"1100003152","Student 03152","M","Lhuntse","Gangzur","Gyalpozhing Academy","East"
"1100003153","Student 03153","M","Lhuntse","Gangzur","Gyalpozhing Academy","East"
"1100003154","Student 03154","M","Lhuntse","Gangzur","Gyalpozhing Academy","East"
"1100003155","Student 03155","M","Lhuntse","Gangzur","Gyalpozhing Academy","East"
"1100003156","Student 03156","M","Lhuntse","Gangzur","Gyalpozhing Academy","East"
"1100003157","Student 03157","M","Lhuntse","Gangzur","Gyalpozhing Academy","East"
"1100003158","Student 03158","M","Lhuntse","Gangzur","Gyalpozhing Academy","East"
"1100003159","Student 03159","M","Lhuntse","Gangzur","Gyalpozhing Academy","East"
"1100003160","Student 03160","M","Lhuntse","Gangzur","Gyalpozhing Academy","East"
"1100003161","Student 03161","M","Lhuntse","Gangzur","Gyalpozhing Academy","East"
"1100003162","Student 03162","M","Lhuntse","Gangzur","Gyalpozhing Academy","East"
"1100003163","Student 03163","M","Lhuntse","Gangzur","Gyalpozhing Academy","East"
"1100003164","Student 03164","M","Lhuntse","Gangzur","Gyalpozhing Academy","East"
"1100003165","Student 03165","M","Lhuntse","Gangzur","Gyalpozhing Academy","East"
"1100003166","Student 03166","M","Lhuntse","Gangzur","Gyalpozhing Academy","East"
"1100003167","Student 03167","F","Lhuntse","Gangzur","Gyalpozhing Academy","East"
"1100003168","Student 03168","F","Lhuntse","Gangzur","Gyalpozhing Academy","East"
"1100003169","Student 03169","F","Lhuntse","Gangzur","Gyalpozhing Academy","East"
"1100003170","Student 03170","F","Lhuntse","Gangzur","Gyalpozhing Academy","East"
"1100003171","Student 03171","F","Lhuntse","Gangzur","Gyalpozhing Academy","East"
"1100003172","Student 03172","F","Lhuntse","Gangzur","Gyalpozhing Academy","East"
"1100003173","Student 03173","F","Lhuntse","Gangzur","Gyalpozhing Academy","East"
"1100003174","Student 03174","F","Lhuntse","Gangzur","Gyalpozhing Academy","East"
"1100003175","Student 03175","F","Lhuntse","Gangzur","Gyalpozhing Academy","East"
"1100003176","Student 03176","F","Lhuntse","Gangzur","Gyalpozhing Academy","East"
"1100003177","Student 03177","F","Lhuntse","Gangzur","Gyalpozhing Academy","East"
"1100003178","Student 03178","F","Lhuntse","Gangzur","Gyalpozhing Academy","East"
"1100003179","Student 03179","F","Lhuntse","Gangzur","Gyalpozhing Academy","East"
"1100003180","Student 03180","F","Lhuntse","Gangzur","Gyalpozhing Academy","East"
"1100003181","Student 03181","F","Lhuntse","Gangzur","Gyalpozhing Academy","East"
"1100003182","Student 03182","F","Lhuntse","Gangzur","Gyalpozhing Academy","East"
"1100003183","Student 03183","F","Lhuntse","Gangzur","Gyalpozhing Academy","East"
"1100003184","Student 03184","M","Lhuntse","Gangzur","Gyalpozhing Academy","East"
"1100003185","Student 03185","M","Lhuntse","Gangzur","Gyalpozhing Academy","East"
"1100003186","Student 03186","M","Lhuntse","Gangzur","Gyalpozhing Academy","East"
"1100003187","Student 03187","M","Lhuntse","Gangzur","Gyalpozhing Academy","East"
"1100003188","Student 03188","M","Lhuntse","Gangzur","Gyalpozhing Academy","East"
"1100003189","Student 03189","M","Lhuntse","Gangzur","Gyalpozhing Academy","East"
"1100003190","Student 03190","M","Lhuntse","Gangzur","Gyalpozhing Academy","East"
"1100003191","Student 03191","M","Lhuntse","Gangzur","Gyalpozhing Academy","East"
"1100003192","Student 03192","M","Lhuntse","Gangzur","Gyalpozhing Academy","East"
"1100003193","Student 03193","F","Lhuntse","Gangzur","Gyalpozhing Academy","East"
"1100003194","Student 03194","F","Lhuntse","Gangzur","Gyalpozhing Academy","East"
"1100003195","Student 03195","F","Lhuntse","Gangzur","Gyalpozhing Academy","East"
"1100003196","Student 03196","F","Lhuntse","Gangzur","Gyalpozhing Academy","East"
"1100003197","Student 03197","F","Lhuntse","Gangzur","Gyalpozhing Academy","East"
"1100003198","Student 03198","F","Lhuntse","Gangzur","Gyalpozhing Academy","East"
"1100003199","Student 03199","F","Lhuntse","Gangzur","Gyalpozhing Academy","East"
"1100003200","Student 03200","F","Lhuntse","Gangzur","Gyalpozhing Academy","East"
"1100003201","Student 03201","F","Lhuntse","Gangzur","Gyalpozhing Academy","East"
"1100003202","Student 03202","F","Lhuntse","Gangzur","Gyalpozhing Academy","East"
"1100003203","Student 03203","F","Lhuntse","Gangzur","Gyalpozhing Academy","East"
"1100003204","Student 03204","F","Lhuntse","Gangzur","Gyalpozhing Academy","East"
"1100003205","Student 03205","F","Lhuntse","Gangzur","Gyalpozhing Academy","East"
"1100003206","Student 03206","F","Lhuntse","Gangzur","Gyalpozhing Academy","East"
"1100003207","Student 03207","F","Lhuntse","Gangzur","Gyalpozhing Academy","East"
"1100003208","Student 03208","F","Lhuntse","Gangzur","Gyalpozhing Academy","East"
"1100003209","Student 03209","F","Lhuntse","Gangzur","Gyalpozhing Academy","East"
"1100003210","Student 03210","F","Lhuntse","Gangzur","Gyalpozhing Academy","East"
"1100003211","Student 03211","F","Lhuntse","Gangzur","Gyalpozhing Academy","East"
"1100003212","Student 03212","F","Lhuntse","Gangzur","Gyalpozhing Academy","East"
"1100003213","Student 03213","M","Lhuntse","Gangzur","Gyalpozhing Academy","East"
"1100003214","Student 03214","M","Lhuntse","Gangzur","Gyalpozhing Academy","East"
"1100003215","Student 03215","M","Lhuntse","Gangzur","Gyalpozhing Academy","East"
"1100003216","Student 03216","M","Lhuntse","Gangzur","Gyalpozhing Academy","East"
"1100003217","Student 03217","M","Lhuntse","Gangzur","Gyalpozhing Academy","East"
"1100003218","Student 03218","M","Lhuntse","Gangzur","Gyalpozhing Academy","East"
"1100003219","Student 03219","M","Lhuntse","Gangzur","Gyalpozhing Academy","East"
"1100003220","Student 03220","F","Lhuntse","Gangzur","Gyalpozhing Academy","East"
"1100003221","Student 03221","F","Lhuntse","Gangzur","Gyalpozhing Academy","East"
"1100003222","Student 03222","F","Lhuntse","Gangzur","Gyalpozhing Academy","East"
"1100003223","Student 03223","F","Lhuntse","Gangzur","Gyalpozhing Academy","East"
"1100003224","Student 03224","F","Lhuntse","Gangzur","Gyalpozhing Academy","East"
"1100003225","Student 03225","F","Lhuntse","Gangzur","Gyalpozhing Academy","East"
"1100003226","Student 03226","F","Lhuntse","Gangzur","Gyalpozhing Academy","East"
"1100003227","Student 03227","F","Lhuntse","Gangzur","Gyalpozhing Academy","East"
"1100003228","Student 03228","F","Lhuntse","Gangzur","Gyalpozhing Academy","East"
"1100003229","Student 03229","F","Lhuntse","Gangzur","Gyalpozhing Academy","East"
"1100003230","Student 03230","F","Lhuntse","Gangzur","Gyalpozhing Academy","East"
"1100003231","Student 03231","F","Lhuntse","Gangzur","Gyalpozhing Academy","East"
"1100003232","Student 03232","F","Lhuntse","Gangzur","Gyalpozhing Academy","East"
"1100003233","Student 03233","F","Lhuntse","Gangzur","Gyalpozhing Academy","East"
"1100003234","Student 03234","F","Lhuntse","Gangzur","Gyalpozhing Academy","East"
"1100003235","Student 03235","F","Lhuntse","Gangzur","Gyalpozhing Academy","East"
"1100003236","Student 03236","F","Lhuntse","Gangzur","Gyalpozhing Academy","East"
"1100003237","Student 03237","M","Lhuntse","Gangzur","Gyalpozhing Academy","East"
"1100003238","Student 03238","M","Lhuntse","Gangzur","Gyalpozhing Academy","East"
"1100003239","Student 03239","M","Lhuntse","Gangzur","Gyalpozhing Academy","East"
"1100003240","Student 03240","M","Lhuntse","Gangzur","Gyalpozhing Academy","East"
"1100003241","Student 03241","M","Lhuntse","Gangzur","Gyalpozhing Academy","East"
"1100003242","Student 03242","M","Lhuntse","Gangzur","Gyalpozhing Academy","East"
"1100003243","Student 03243","M","Lhuntse","Gangzur","Gyalpozhing Academy","East"
"1100003244","Student 03244","M","Lhuntse","Gangzur","Gyalpozhing Academy","East"
"1100003245","Student 03245","M","Lhuntse","Gangzur","Gyalpozhing Academy","East"
"1100003246","Student 03246","F","Lhuntse","Gangzur","Gyalpozhing Academy","East"
"1100003266","Student 03266","F","Punakha","Guma","Gyalpozhing Academy","Central"
"1100003267","Student 03267","F","Punakha","Guma","Gyalpozhing Academy","Central"
"1100003268","Student 03268","F","Punakha","Guma","Gyalpozhing Academy","Central"
"1100003269","Student 03269","F","Punakha","Guma","Gyalpozhing Academy","Central"
"1100003270","Student 03270","F","Punakha","Guma","Gyalpozhing Academy","Central"
"1100003271","Student 03271","F","Punakha","Guma","Gyalpozhing Academy","Central"
"1100003272","Student 03272","F","Punakha","Guma","Gyalpozhing Academy","Central"
"1100003273","Student 03273","F","Punakha","Guma","Gyalpozhing Academy","Central"
"1100003274","Student 03274","F","Punakha","Guma","Gyalpozhing Academy","Central"
"1100003275","Student 03275","F","Punakha","Guma","Gyalpozhing Academy","Central"
"1100003288","Student 03288","F","Punakha","Guma","Gyalpozhing Academy","Central"
"1100003289","Student 03289","F","Punakha","Guma","Gyalpozhing Academy","Central"
"1100003290","Student 03290","F","Punakha","Guma","Gyalpozhing Academy","Central"
"1100003291","Student 03291","F","Punakha","Guma","Gyalpozhing Academy","Central"
"1100003292","Student 03292","F","Punakha","Guma","Gyalpozhing Academy","Central"
"1100003293","Student 03293","F","Punakha","Guma","Gyalpozhing Academy","Central"
"1100003294","Student 03294","F","Punakha","Guma","Gyalpozhing Academy","Central"
"1100003295","Student 03295","F","Punakha","Guma","Gyalpozhing Academy","Central"
"1100003307","Student 03307","F","Punakha","Guma","Gyalpozhing Academy","Central"
"1100003321","Student 03321","F","Punakha","Guma","Gyalpozhing Academy","Central"
"1100003322","Student 03322","F","Punakha","Guma","Gyalpozhing Academy","Central"
"1100003323","Student 03323","F","Punakha","Guma","Gyalpozhing Academy","Central"
"1100003324","Student 03324","F","Punakha","Guma","Gyalpozhing Academy","Central"
"1100003325","Student 03325","F","Punakha","Guma","Gyalpozhing Academy","Central"
"1100003326","Student 03326","F","Punakha","Guma","Gyalpozhing Academy","Central"
"1100003327","Student 03327","F","Punakha","Guma","Gyalpozhing Academy","Central"
"1100003328","Student 03328","F","Punakha","Guma","Gyalpozhing Academy","Central"
"1100003329","Student 03329","F","Punakha","Guma","Gyalpozhing Academy","Central"
"1100003330","Student 03330","F","Punakha","Guma","Gyalpozhing Academy","Central"
"1100003331","Student 03331","F","Punakha","Guma","Gyalpozhing Academy","Central"
"1100003332","Student 03332","F","Punakha","Guma","Gyalpozhing Academy","Central"
"1100003333","Student 03333","F","Punakha","Guma","Gyalpozhing Academy","Central"
"1100003334","Student 03334","F","Punakha","Guma","Gyalpozhing Academy","Central"
"1100003335","Student 03335","F","Punakha","Guma","Gyalpozhing Academy","Central"
"1100003336","Student 03336","F","Punakha","Guma","Gyalpozhing Academy","Central"
"1100003337","Student 03337","F","Punakha","Guma","Gyalpozhing Academy","Central"
"1100003338","Student 03338","F","Punakha","Guma","Gyalpozhing Academy","Central"
"1100003356","Student 03356","F","Punakha","Guma","Gyalpozhing Academy","Central"
"1100003357","Student 03357","F","Punakha","Guma","Gyalpozhing Academy","Central"
"1100003358","Student 03358","F","Punakha","Guma","Gyalpozhing Academy","Central"
"1100003359","Student 03359","F","Punakha","Guma","Gyalpozhing Academy","Central"
"1100003360","Student 03360","F","Punakha","Guma","Gyalpozhing Academy","Central"
"1100003361","Student 03361","F","Punakha","Guma","Gyalpozhing Academy","Central"
"1100003362","Student 03362","F","Punakha","Guma","Gyalpozhing Academy","Central"
"1100003363","Student 03363","F","Punakha","Guma","Gyalpozhing Academy","Central"
"1100003364","Student 03364","F","Punakha","Guma","Gyalpozhing Academy","Central"
"1100003365","Student 03365","F","Punakha","Guma","Gyalpozhing Academy","Central"
"1100003366","Student 03366","F","Punakha","Guma","Gyalpozhing Academy","Central"
"1100003367","Student 03367","F","Punakha","Guma","Gyalpozhing Academy","Central"
"1100003368","Student 03368","F","Punakha","Guma","Gyalpozhing Academy","Central"
"1100003369","Student 03369","F","Punakha","Guma","Gyalpozhing Academy","Central"
"1100003370","Student 03370","F","Punakha","Guma","Gyalpozhing Academy","Central"
"1100003371","Student 03371","F","Punakha","Guma","Gyalpozhing Academy","Central"
"1100003372","Student 03372","F","Punakha","Guma","Gyalpozhing Academy","Central"
"1100003373","Student 03373","F","Punakha","Guma","Gyalpozhing Academy","Central"
"1100003374","Student 03374","F","Punakha","Guma","Gyalpozhing Academy","Central"
"1100003375","Student 03375","F","Punakha","Guma","Gyalpozhing Academy","Central"
"1100003376","Student 03376","F","Punakha","Guma","Gyalpozhing Academy","Central"
"1100003377","Student 03377","F","Punakha","Guma","Gyalpozhing Academy","Central"
"1100003378","Student 03378","F","Punakha","Guma","Gyalpozhing Academy","Central"
"1100003379","Student 03379","F","Punakha","Guma","Gyalpozhing Academy","Central"
"1100003392","Student 03392","F","Punakha","Guma","Gyalpozhing Academy","Central"
"1100003393","Student 03393","F","Punakha","Guma","Gyalpozhing Academy","Central"
"1100004156","Student 04156","M","Bumthang","Chumey","Gyalpozhing Academy","South"
"1100004157","Student 04157","F","Bumthang","Chumey","Gyalpozhing Academy","South"
"1100004158","Student 04158","M","Bumthang","Chumey","Gyalpozhing Academy","South"
"1100004159","Student 04159","F","Bumthang","Chumey","Gyalpozhing Academy","South"
"1100004160","Student 04160","M","Bumthang","Chumey","Gyalpozhing Academy","South"
"1100004161","Student 04161","M","Bumthang","Chumey","Gyalpozhing Academy","South"
"1100004162","Student 04162","M","Bumthang","Chumey","Gyalpozhing Academy","South"
"1100004163","Student 04163","M","Bumthang","Chumey","Gyalpozhing Academy","South"
"1100004164","Student 04164","M","Bumthang","Chumey","Gyalpozhing Academy","South"
"1100004165","Student 04165","F","Bumthang","Chumey","Gyalpozhing Academy","South"
"1100004166","Student 04166","F","Bumthang","Chumey","Gyalpozhing Academy","South"
"1100004167","Student 04167","M","Bumthang","Chumey","Gyalpozhing Academy","South"
"1100004168","Student 04168","M","Bumthang","Chumey","Gyalpozhing Academy","South"
"1100004169","Student 04169","F","Bumthang","Chumey","Gyalpozhing Academy","South"
"1100004170","Student 04170","M","Bumthang","Chumey","Gyalpozhing Academy","South"
"1100004171","Student 04171","M","Bumthang","Chumey","Gyalpozhing Academy","South"
"1100004172","Student 04172","F","Bumthang","Chumey","Gyalpozhing Academy","South"
"1100004173","Student 04173","F","Bumthang","Chumey","Gyalpozhing Academy","South"
"1100004174","Student 04174","M","Bumthang","Chumey","Gyalpozhing Academy","South"
"1100004175","Student 04175","M","Bumthang","Chumey","Gyalpozhing Academy","South"
"1100004176","Student 04176","M","Bumthang","Chumey","Gyalpozhing Academy","South"
"1100004177","Student 04177","M","Bumthang","Chumey","Gyalpozhing Academy","South"
"1100004178","Student 04178","F","Bumthang","Chumey","Gyalpozhing Academy","South"
"1100004179","Student 04179","M","Bumthang","Chumey","Gyalpozhing Academy","South"
"1100004180","Student 04180","F","Bumthang","Chumey","Gyalpozhing Academy","South"
"1100004181","Student 04181","M","Bumthang","Chumey","Gyalpozhing Academy","South"
"1100004182","Student 04182","F","Bumthang","Chumey","Gyalpozhing Academy","South"
"1100004183","Student 04183","F","Bumthang","Chumey","Gyalpozhing Academy","South"
"1100004184","Student 04184","M","Bumthang","Chumey","Gyalpozhing Academy","South"
"1100004185","Student 04185","F","Bumthang","Chumey","Gyalpozhing Academy","South"
"1100004186","Student 04186","M","Bumthang","Chumey","Gyalpozhing Academy","South"
"1100004187","Student 04187","F","Bumthang","Chumey","Gyalpozhing Academy","South"
"1100004188","Student 04188","F","Bumthang","Chumey","Gyalpozhing Academy","South"
"1100004189","Student 04189","M","Bumthang","Chumey","Gyalpozhing Academy","South"
"1100004190","Student 04190","F","Bumthang","Chumey","Gyalpozhing Academy","South"
"1100004191","Student 04191","F","Bumthang","Chumey","Gyalpozhing Academy","South"
"1100004192","Student 04192","M","Bumthang","Chumey","Gyalpozhing Academy","South"
"1100004193","Student 04193","F","Bumthang","Chumey","Gyalpozhing Academy","South"
"1100004194","Student 04194","F","Bumthang","Chumey","Gyalpozhing Academy","South"
"1100004195","Student 04195","F","Bumthang","Chumey","Gyalpozhing Academy","South"
"1100004196","Student 04196","M","Bumthang","Chumey","Gyalpozhing Academy","South"
"1100004197","Student 04197","F","Bumthang","Chumey","Gyalpozhing Academy","South"
"1100004198","Student 04198","F","Bumthang","Chumey","Gyalpozhing Academy","South"
"1100004199","Student 04199","M","Bumthang","Chumey","Gyalpozhing Academy","South"
"1100004200","Student 04200","M","Bumthang","Chumey","Gyalpozhing Academy","South"
"1100004201","Student 04201","F","Bumthang","Chumey","Gyalpozhing Academy","South"
"1100004202","Student 04202","M","Bumthang","Chumey","Gyalpozhing Academy","South"
"1100004203","Student 04203","F","Bumthang","Chumey","Gyalpozhing Academy","South"
"1100004204","Student 04204","M","Bumthang","Chumey","Gyalpozhing Academy","South"
"1100004205","Student 04205","F","Bumthang","Chumey","Gyalpozhing Academy","South"
"1100004206","Student 04206","F","Bumthang","Chumey","Gyalpozhing Academy","South"
"1100004207","Student 04207","M","Bumthang","Chumey","Gyalpozhing Academy","South"
"1100004208","Student 04208","F","Bumthang","Chumey","Gyalpozhing Academy","South"
"1100004209","Student 04209","M","Bumthang","Chumey","Gyalpozhing Academy","South"
"1100004210","Student 04210","F","Bumthang","Chumey","Gyalpozhing Academy","South"
"1100004211","Student 04211","M","Bumthang","Chumey","Gyalpozhing Academy","South"
"1100004212","Student 04212","M","Bumthang","Chumey","Gyalpozhing Academy","South"
"1100004213","Student 04213","M","Bumthang","Chumey","Gyalpozhing Academy","South"
"1100004214","Student 04214","F","Bumthang","Chumey","Gyalpozhing Academy","South"
"1100004216","Student 04216","M","Bumthang","Chumey","Gyalpozhing Academy","South"
"1100004217","Student 04217","M","Bumthang","Chumey","Gyalpozhing Academy","South"
"1100004245","Student 04245","M","Punakha","Guma","Gyalpozhing Academy","Central"
"1100004246","Student 04246","M","Punakha","Guma","Gyalpozhing Academy","Central"
"1100004247","Student 04247","M","Punakha","Guma","Gyalpozhing Academy","Central"
"1100004248","Student 04248","M","Punakha","Guma","Gyalpozhing Academy","Central"
"1100004249","Student 04249","M","Punakha","Guma","Gyalpozhing Academy","Central"
"1100004250","Student 04250","M","Punakha","Guma","Gyalpozhing Academy","Central"
"1100004251","Student 04251","M","Punakha","Guma","Gyalpozhing Academy","Central"
"1100004252","Student 04252","M","Punakha","Guma","Gyalpozhing Academy","Central"
"1100004253","Student 04253","M","Punakha","Guma","Gyalpozhing Academy","Central"
"1100004254","Student 04254","M","Punakha","Guma","Gyalpozhing Academy","Central"
"1100004256","Student 04256","M","Punakha","Guma","Gyalpozhing Academy","Central"
"1100004257","Student 04257","M","Punakha","Guma","Gyalpozhing Academy","Central"
"1100004283","Student 04283","M","Punakha","Guma","Gyalpozhing Academy","Central"
"1100004284","Student 04284","M","Punakha","Guma","Gyalpozhing Academy","Central"
"1100004285","Student 04285","M","Punakha","Guma","Gyalpozhing Academy","Central"
"1100004286","Student 04286","M","Punakha","Guma","Gyalpozhing Academy","Central"
"1100004287","Student 04287","M","Punakha","Guma","Gyalpozhing Academy","Central"
"1100004288","Student 04288","M","Punakha","Guma","Gyalpozhing Academy","Central"
"1100004289","Student 04289","M","Punakha","Guma","Gyalpozhing Academy","Central"
"1100004290","Student 04290","M","Punakha","Guma","Gyalpozhing Academy","Central"
"1100004291","Student 04291","M","Punakha","Guma","Gyalpozhing Academy","Central"
"1100004292","Student 04292","M","Punakha","Guma","Gyalpozhing Academy","Central"
"1100004293","Student 04293","M","Punakha","Guma","Gyalpozhing Academy","Central"
"1100004294","Student 04294","M","Punakha","Guma","Gyalpozhing Academy","Central"
"1100004295","Student 04295","M","Punakha","Guma","Gyalpozhing Academy","Central"
"1100004296","Student 04296","M","Punakha","Guma","Gyalpozhing Academy","Central"
"1100004297","Student 04297","M","Punakha","Guma","Gyalpozhing Academy","Central"
"1100004322","Student 04322","M","Punakha","Guma","Gyalpozhing Academy","Central"
"1100004323","Student 04323","M","Punakha","Guma","Gyalpozhing Academy","Central"
"1100004324","Student 04324","M","Punakha","Guma","Gyalpozhing Academy","Central"
"1100004325","Student 04325","M","Punakha","Guma","Gyalpozhing Academy","Central"
"1100004326","Student 04326","M","Punakha","Guma","Gyalpozhing Academy","Central"
"1100004327","Student 04327","M","Punakha","Guma","Gyalpozhing Academy","Central"
"1100004328","Student 04328","M","Punakha","Guma","Gyalpozhing Academy","Central"
"1100004329","Student 04329","M","Punakha","Guma","Gyalpozhing Academy","Central"
"1100004330","Student 04330","M","Punakha","Guma","Gyalpozhing Academy","Central"
"1100004331","Student 04331","M","Punakha","Guma","Gyalpozhing Academy","Central"
"1100004337","Student 04337","M","Punakha","Guma","Gyalpozhing Academy","Central"
"1100004346","Student 04346","M","Punakha","Guma","Gyalpozhing Academy","Central"
"1100004347","Student 04347","M","Punakha","Guma","Gyalpozhing Academy","Central"
"1100004348","Student 04348","M","Punakha","Guma","Gyalpozhing Academy","Central"
"1100004349","Student 04349","M","Punakha","Guma","Gyalpozhing Academy","Central"
"1100004350","Student 04350","M","Punakha","Guma","Gyalpozhing Academy","Central"
"1100004351","Student 04351","M","Punakha","Guma","Gyalpozhing Academy","Central"
"1100004352","Student 04352","M","Punakha","Guma","Gyalpozhing Academy","Central"
"1100004353","Student 04353","M","Punakha","Guma","Gyalpozhing Academy","Central"
"1100004354","Student 04354","M","Punakha","Guma","Gyalpozhing Academy","Central"
"1100004355","Student 04355","M","Punakha","Guma","Gyalpozhing Academy","Central"
"1100004356","Student 04356","M","Punakha","Guma","Gyalpozhing Academy","Central"
"1100004357","Student 04357","M","Punakha","Guma","Gyalpozhing Academy","Central"
"1100004358","Student 04358","M","Punakha","Guma","Gyalpozhing Academy","Central"
"1100004359","Student 04359","M","Punakha","Guma","Gyalpozhing Academy","Central"
"1100004362","Student 04362","M","Punakha","Guma","Gyalpozhing Academy","Central"
"1100004371","Student 04371","M","Punakha","Guma","Gyalpozhing Academy","Central"
"1100004380","Student 04380","M","Punakha","Guma","Gyalpozhing Academy","Central"
"1100004381","Student 04381","M","Punakha","Guma","Gyalpozhing Academy","Central"
"1100004382","Student 04382","M","Punakha","Guma","Gyalpozhing Academy","Central"
"1100004383","Student 04383","M","Punakha","Guma","Gyalpozhing Academy","Central"
"1100004384","Student 04384","M","Punakha","Guma","Gyalpozhing Academy","Central"
"1100004385","Student 04385","M","Punakha","Guma","Gyalpozhing Academy","Central"
"1100004386","Student 04386","M","Punakha","Guma","Gyalpozhing Academy","Central"
"1100004387","Student 04387","M","Punakha","Guma","Gyalpozhing Academy","Central"
"1100004388","Student 04388","M","Punakha","Guma","Gyalpozhing Academy","Central"
"1100004389","Student 04389","M","Punakha","Guma","Gyalpozhing Academy","Central"
"1100004390","Student 04390","M","Punakha","Guma","Gyalpozhing Academy","Central"
"1100004391","Student 04391","M","Punakha","Guma","Gyalpozhing Academy","Central"
"1100004392","Student 04392","M","Punakha","Guma","Gyalpozhing Academy","Central"
"1100004393","Student 04393","M","Punakha","Guma","Gyalpozhing Academy","Central"
"1100004394","Student 04394","M","Punakha","Guma","Gyalpozhing Academy","Central"
"1100004395","Student 04395","M","Punakha","Guma","Gyalpozhing Academy","Central"
"1100004396","Student 04396","M","Punakha","Guma","Gyalpozhing Academy","Central"
"1100004397","Student 04397","M","Punakha","Guma","Gyalpozhing Academy","Central"
"1100004400","Student 04400","M","Punakha","Guma","Gyalpozhing Academy","Central"
"1100004401","Student 04401","M","Punakha","Guma","Gyalpozhing Academy","Central"
"1100004415","Student 04415","M","Punakha","Guma","Gyalpozhing Academy","Central"
"1100004416","Student 04416","M","Punakha","Guma","Gyalpozhing Academy","Central"
"1100006120","Student 06120","F","Lhuntse","Maenbi","Gyalpozhing Academy","East"
"1100006121","Student 06121","M","Lhuntse","Maenbi","Gyalpozhing Academy","East"
"1100006122","Student 06122","F","Lhuntse","Maenbi","Gyalpozhing Academy","East"
"1100006123","Student 06123","F","Lhuntse","Maenbi","Gyalpozhing Academy","East"
"1100006124","Student 06124","F","Lhuntse","Maenbi","Gyalpozhing Academy","East"
"1100006125","Student 06125","M","Lhuntse","Maenbi","Gyalpozhing Academy","East"
"1100006126","Student 06126","F","Lhuntse","Maenbi","Gyalpozhing Academy","East"
"1100006127","Student 06127","F","Lhuntse","Maenbi","Gyalpozhing Academy","East"
"1100006128","Student 06128","F","Lhuntse","Maenbi","Gyalpozhing Academy","East"
"1100006129","Student 06129","M","Lhuntse","Maenbi","Gyalpozhing Academy","East"
"1100006130","Student 06130","F","Lhuntse","Maenbi","Gyalpozhing Academy","East"
"1100006131","Student 06131","F","Lhuntse","Maenbi","Gyalpozhing Academy","East"
"1100006132","Student 06132","M","Lhuntse","Maenbi","Gyalpozhing Academy","East"
"1100006133","Student 06133","F","Lhuntse","Maenbi","Gyalpozhing Academy","East"
"1100006134","Student 06134","F","Lhuntse","Maenbi","Gyalpozhing Academy","East"
"1100006135","Student 06135","M","Lhuntse","Maenbi","Gyalpozhing Academy","East"
"1100006136","Student 06136","M","Lhuntse","Maenbi","Gyalpozhing Academy","East"
"1100006137","Student 06137","M","Lhuntse","Maenbi","Gyalpozhing Academy","East"
"1100006138","Student 06138","F","Lhuntse","Maenbi","Gyalpozhing Academy","East"
"1100006139","Student 06139","F","Lhuntse","Maenbi","Gyalpozhing Academy","East"
"1100006140","Student 06140","M","Lhuntse","Maenbi","Gyalpozhing Academy","East"
"1100006141","Student 06141","M","Lhuntse","Maenbi","Gyalpozhing Academy","East"
"1100006142","Student 06142","F","Lhuntse","Maenbi","Gyalpozhing Academy","East"
"1100006143","Student 06143","M","Lhuntse","Maenbi","Gyalpozhing Academy","East"
"1100006144","Student 06144","F","Lhuntse","Maenbi","Gyalpozhing Academy","East"
"1100006145","Student 06145","M","Lhuntse","Maenbi","Gyalpozhing Academy","East"
"1100006146","Student 06146","M","Lhuntse","Maenbi","Gyalpozhing Academy","East"
"1100006147","Student 06147","F","Lhuntse","Maenbi","Gyalpozhing Academy","East"
"1100006148","Student 06148","M","Lhuntse","Maenbi","Gyalpozhing Academy","East"
"1100006149","Student 06149","F","Lhuntse","Maenbi","Gyalpozhing Academy","East"
"1100006150","Student 06150","M","Lhuntse","Maenbi","Gyalpozhing Academy","East"
"1100006151","Student 06151","M","Lhuntse","Maenbi","Gyalpozhing Academy","East"
"1100006152","Student 06152","M","Lhuntse","Maenbi","Gyalpozhing Academy","East"
"1100006153","Student 06153","F","Lhuntse","Maenbi","Gyalpozhing Academy","East"
"1100006154","Student 06154","F","Lhuntse","Maenbi","Gyalpozhing Academy","East"
"1100006155","Student 06155","F","Lhuntse","Maenbi","Gyalpozhing Academy","East"
"1100006156","Student 06156","F","Lhuntse","Maenbi","Gyalpozhing Academy","East"
"1100006157","Student 06157","F","Lhuntse","Maenbi","Gyalpozhing Academy","East"
"1100006158","Student 06158","M","Lhuntse","Maenbi","Gyalpozhing Academy","East"
"1100006159","Student 06159","M","Lhuntse","Maenbi","Gyalpozhing Academy","East"
"1100006160","Student 06160","M","Lhuntse","Maenbi","Gyalpozhing Academy","East"
"1100006161","Student 06161","M","Lhuntse","Maenbi","Gyalpozhing Academy","East"
"1100006162","Student 06162","F","Lhuntse","Maenbi","Gyalpozhing Academy","East"
"1100006163","Student 06163","F","Lhuntse","Maenbi","Gyalpozhing Academy","East"
"1100006164","Student 06164","F","Lhuntse","Maenbi","Gyalpozhing Academy","East"
"1100006165","Student 06165","M","Lhuntse","Maenbi","Gyalpozhing Academy","East"
"1100006166","Student 06166","M","Lhuntse","Maenbi","Gyalpozhing Academy","East"
"1100006167","Student 06167","M","Lhuntse","Maenbi","Gyalpozhing Academy","East"
"1100006168","Student 06168","F","Lhuntse","Maenbi","Gyalpozhing Academy","East"
"1100006169","Student 06169","F","Lhuntse","Maenbi","Gyalpozhing Academy","East"
"1100006170","Student 06170","F","Lhuntse","Maenbi","Gyalpozhing Academy","East"
"1100006171","Student 06171","M","Lhuntse","Maenbi","Gyalpozhing Academy","East"
"1100006172","Student 06172","M","Lhuntse","Maenbi","Gyalpozhing Academy","East"
"1100006173","Student 06173","F","Lhuntse","Maenbi","Gyalpozhing Academy","East"
"1100006174","Student 06174","F","Lhuntse","Maenbi","Gyalpozhing Academy","East"
"1100006175","Student 06175","M","Lhuntse","Maenbi","Gyalpozhing Academy","East"
"1100006176","Student 06176","M","Lhuntse","Maenbi","Gyalpozhing Academy","East"
"1100006177","Student 06177","M","Lhuntse","Maenbi","Gyalpozhing Academy","East"
"1100006178","Student 06178","F","Lhuntse","Maenbi","Gyalpozhing Academy","East"
"1100006179","Student 06179","F","Lhuntse","Maenbi","Gyalpozhing Academy","East"
"1100006180","Student 06180","M","Lhuntse","Maenbi","Gyalpozhing Academy","East"
"1100006181","Student 06181","M","Lhuntse","Maenbi","Gyalpozhing Academy","East"
"1100006182","Student 06182","M","Lhuntse","Maenbi","Gyalpozhing Academy","East"
"1100006183","Student 06183","F","Lhuntse","Maenbi","Gyalpozhing Academy","East"
"1100006184","Student 06184","M","Lhuntse","Maenbi","Gyalpozhing Academy","East"
"1100006185","Student 06185","F","Lhuntse","Maenbi","Gyalpozhing Academy","East"
"1100006186","Student 06186","F","Lhuntse","Maenbi","Gyalpozhing Academy","East"
"1100006187","Student 06187","F","Lhuntse","Maenbi","Gyalpozhing Academy","East"
"1100006188","Student 06188","M","Lhuntse","Maenbi","Gyalpozhing Academy","East"
"1100006189","Student 06189","F","Lhuntse","Maenbi","Gyalpozhing Academy","East"
"1100006190","Student 06190","M","Lhuntse","Maenbi","Gyalpozhing Academy","East"
"1100006191","Student 06191","F","Lhuntse","Maenbi","Gyalpozhing Academy","East"
"1100006192","Student 06192","F","Lhuntse","Maenbi","Gyalpozhing Academy","East"
"1100006238","Student 06238","M","Trashiyangtse","Khamdang","Gyalpozhing Academy","East"
"1100006239","Student 06239","M","Trashiyangtse","Khamdang","Gyalpozhing Academy","East"
"1100006240","Student 06240","M","Trashiyangtse","Khamdang","Gyalpozhing Academy","East"
"1100006241","Student 06241","M","Trashiyangtse","Khamdang","Gyalpozhing Academy","East"
"1100006243","Student 06243","M","Trashiyangtse","Khamdang","Gyalpozhing Academy","East"
"1100006244","Student 06244","M","Trashiyangtse","Khamdang","Gyalpozhing Academy","East"
"1100006245","Student 06245","M","Trashiyangtse","Khamdang","Gyalpozhing Academy","East"
"1100006246","Student 06246","M","Trashiyangtse","Khamdang","Gyalpozhing Academy","East"
"1100006247","Student 06247","M","Trashiyangtse","Khamdang","Gyalpozhing Academy","East"
"1100006248","Student 06248","M","Trashiyangtse","Khamdang","Gyalpozhing Academy","East"
"1100006251","Student 06251","M","Trashiyangtse","Khamdang","Gyalpozhing Academy","East"
"1100006252","Student 06252","M","Trashiyangtse","Khamdang","Gyalpozhing Academy","East"
"1100006254","Student 06254","M","Trashiyangtse","Khamdang","Gyalpozhing Academy","East"
"1100006255","Student 06255","M","Trashiyangtse","Khamdang","Gyalpozhing Academy","East"
"1100006256","Student 06256","M","Trashiyangtse","Khamdang","Gyalpozhing Academy","East"
"1100006258","Student 06258","M","Trashiyangtse","Khamdang","Gyalpozhing Academy","East"
"1100006259","Student 06259","M","Trashiyangtse","Khamdang","Gyalpozhing Academy","East"
"1100006263","Student 06263","M","Trashiyangtse","Khamdang","Gyalpozhing Academy","East"
"1100006266","Student 06266","M","Trashiyangtse","Khamdang","Gyalpozhing Academy","East"
"1100006267","Student 06267","M","Trashiyangtse","Khamdang","Gyalpozhing Academy","East"
"1100006274","Student 06274","M","Trashiyangtse","Khamdang","Gyalpozhing Academy","East"
"1100006279","Student 06279","M","Trashiyangtse","Khamdang","Gyalpozhing Academy","East"
"1100006280","Student 06280","M","Trashiyangtse","Khamdang","Gyalpozhing Academy","East"
"1100006282","Student 06282","M","Trashiyangtse","Khamdang","Gyalpozhing Academy","East"
"1100006283","Student 06283","M","Trashiyangtse","Khamdang","Gyalpozhing Academy","East"
"1100006285","Student 06285","M","Trashiyangtse","Khamdang","Gyalpozhing Academy","East"
"1100006287","Student 06287","M","Trashiyangtse","Khamdang","Gyalpozhing Academy","East"
"1100006325","Student 06325","M","Trashiyangtse","Khamdang","Gyalpozhing Academy","East"
"1100006327","Student 06327","M","Trashiyangtse","Khamdang","Gyalpozhing Academy","East"
"1100006332","Student 06332","M","Trashiyangtse","Khamdang","Gyalpozhing Academy","East"
"1100006333","Student 06333","M","Trashiyangtse","Khamdang","Gyalpozhing Academy","East"
"1100006335","Student 06335","M","Trashiyangtse","Khamdang","Gyalpozhing Academy","East"
"1100006336","Student 06336","M","Trashiyangtse","Khamdang","Gyalpozhing Academy","East"
"1100006339","Student 06339","M","Trashiyangtse","Khamdang","Gyalpozhing Academy","East"
"1100006340","Student 06340","M","Trashiyangtse","Khamdang","Gyalpozhing Academy","East"
"1100006341","Student 06341","M","Trashiyangtse","Khamdang","Gyalpozhing Academy","East"
"1100006345","Student 06345","M","Trashiyangtse","Khamdang","Gyalpozhing Academy","East"
"1100006346","Student 06346","M","Trashiyangtse","Khamdang","Gyalpozhing Academy","East"
"1100006347","Student 06347","M","Trashiyangtse","Khamdang","Gyalpozhing Academy","East"
"1100006884","Student 06884","M","Mongar","Ngatshang","Gyalpozhing Academy","East"
"1100006885","Student 06885","M","Mongar","Ngatshang","Gyalpozhing Academy","East"
"1100006886","Student 06886","F","Mongar","Ngatshang","Gyalpozhing Academy","East"
"1100006887","Student 06887","F","Mongar","Ngatshang","Gyalpozhing Academy","East"
"1100006888","Student 06888","M","Mongar","Ngatshang","Gyalpozhing Academy","East"
"1100006889","Student 06889","F","Mongar","Ngatshang","Gyalpozhing Academy","East"
"1100006890","Student 06890","F","Mongar","Ngatshang","Gyalpozhing Academy","East"
"1100006891","Student 06891","F","Mongar","Ngatshang","Gyalpozhing Academy","East"
"1100006892","Student 06892","F","Mongar","Ngatshang","Gyalpozhing Academy","East"
"1100006893","Student 06893","F","Mongar","Ngatshang","Gyalpozhing Academy","East"
"1100006894","Student 06894","F","Mongar","Ngatshang","Gyalpozhing Academy","East"
"1100006895","Student 06895","M","Mongar","Ngatshang","Gyalpozhing Academy","East"
"1100006896","Student 06896","F","Mongar","Ngatshang","Gyalpozhing Academy","East"
"1100006897","Student 06897","F","Mongar","Ngatshang","Gyalpozhing Academy","East"
"1100006898","Student 06898","M","Mongar","Ngatshang","Gyalpozhing Academy","East"
"1100006899","Student 06899","F","Mongar","Ngatshang","Gyalpozhing Academy","East"
"1100006900","Student 06900","F","Mongar","Ngatshang","Gyalpozhing Academy","East"
"1100006901","Student 06901","F","Mongar","Ngatshang","Gyalpozhing Academy","East"
"1100006902","Student 06902","F","Mongar","Ngatshang","Gyalpozhing Academy","East"
"1100006903","Student 06903","F","Mongar","Ngatshang","Gyalpozhing Academy","East"
"1100006904","Student 06904","M","Mongar","Ngatshang","Gyalpozhing Academy","East"
"1100006905","Student 06905","M","Mongar","Ngatshang","Gyalpozhing Academy","East"
"1100006906","Student 06906","F","Mongar","Ngatshang","Gyalpozhing Academy","East"
"1100006907","Student 06907","M","Mongar","Ngatshang","Gyalpozhing Academy","East"
"1100006908","Student 06908","F","Mongar","Ngatshang","Gyalpozhing Academy","East"
"1100006909","Student 06909","M","Mongar","Ngatshang","Gyalpozhing Academy","East"
"1100006910","Student 06910","M","Mongar","Ngatshang","Gyalpozhing Academy","East"
"1100006911","Student 06911","F","Mongar","Ngatshang","Gyalpozhing Academy","East"
"1100006912","Student 06912","F","Mongar","Ngatshang","Gyalpozhing Academy","East"
"1100006913","Student 06913","M","Mongar","Ngatshang","Gyalpozhing Academy","East"
"1100006914","Student 06914","M","Mongar","Ngatshang","Gyalpozhing Academy","East"
"1100006915","Student 06915","F","Mongar","Ngatshang","Gyalpozhing Academy","East"
"1100006916","Student 06916","M","Mongar","Ngatshang","Gyalpozhing Academy","East"
"1100006917","Student 06917","F","Mongar","Ngatshang","Gyalpozhing Academy","East"
"1100006918","Student 06918","F","Mongar","Ngatshang","Gyalpozhing Academy","East"
"1100006919","Student 06919","F","Mongar","Ngatshang","Gyalpozhing Academy","East"
"1100006920","Student 06920","F","Mongar","Ngatshang","Gyalpozhing Academy","East"
"1100006921","Student 06921","F","Mongar","Ngatshang","Gyalpozhing Academy","East"
"1100006922","Student 06922","F","Mongar","Ngatshang","Gyalpozhing Academy","East"
"1100006923","Student 06923","M","Mongar","Ngatshang","Gyalpozhing Academy","East"
"1100006924","Student 06924","M","Mongar","Ngatshang","Gyalpozhing Academy","East"
"1100006925","Student 06925","F","Mongar","Ngatshang","Gyalpozhing Academy","East"
"1100006926","Student 06926","F","Mongar","Ngatshang","Gyalpozhing Academy","East"
"1100006927","Student 06927","M","Mongar","Ngatshang","Gyalpozhing Academy","East"
"1100006928","Student 06928","M","Mongar","Ngatshang","Gyalpozhing Academy","East"
"1100006929","Student 06929","F","Mongar","Ngatshang","Gyalpozhing Academy","East"
"1100006930","Student 06930","M","Mongar","Ngatshang","Gyalpozhing Academy","East"
"1100006931","Student 06931","F","Mongar","Ngatshang","Gyalpozhing Academy","East"
"1100006932","Student 06932","F","Mongar","Ngatshang","Gyalpozhing Academy","East"
"1100006933","Student 06933","F","Mongar","Ngatshang","Gyalpozhing Academy","East"
"1100006934","Student 06934","F","Mongar","Ngatshang","Gyalpozhing Academy","East"
"1100006935","Student 06935","M","Mongar","Ngatshang","Gyalpozhing Academy","East"
"1100006936","Student 06936","M","Mongar","Ngatshang","Gyalpozhing Academy","East"
"1100006937","Student 06937","F","Mongar","Ngatshang","Gyalpozhing Academy","East"
"1100006938","Student 06938","F","Mongar","Ngatshang","Gyalpozhing Academy","East"
"1100006939","Student 06939","F","Mongar","Ngatshang","Gyalpozhing Academy","East"
"1100006940","Student 06940","F","Mongar","Ngatshang","Gyalpozhing Academy","East"
"1100006941","Student 06941","F","Mongar","Ngatshang","Gyalpozhing Academy","East"
"1100006942","Student 06942","F","Mongar","Ngatshang","Gyalpozhing Academy","East"
"1100006943","Student 06943","F","Mongar","Ngatshang","Gyalpozhing Academy","East"
"1100006944","Student 06944","M","Mongar","Ngatshang","Gyalpozhing Academy","East"
"1100006945","Student 06945","M","Mongar","Ngatshang","Gyalpozhing Academy","East"
"1100006946","Student 06946","F","Mongar","Ngatshang","Gyalpozhing Academy","East"
"1100006947","Student 06947","F","Mongar","Ngatshang","Gyalpozhing Academy","East"
"1100006948","Student 06948","M","Mongar","Ngatshang","Gyalpozhing Academy","East"
"1100007019","Student 07019","M","Mongar","Ngatshang","Gyalpozhing Academy","East"
"1100007020","Student 07020","M","Mongar","Ngatshang","Gyalpozhing Academy","East"
"1100007021","Student 07021","F","Mongar","Ngatshang","Gyalpozhing Academy","East"
"1100007022","Student 07022","F","Mongar","Ngatshang","Gyalpozhing Academy","East"
"1100007023","Student 07023","F","Mongar","Ngatshang","Gyalpozhing Academy","East"
"1100007024","Student 07024","F","Mongar","Ngatshang","Gyalpozhing Academy","East"
"1100007025","Student 07025","F","Mongar","Ngatshang","Gyalpozhing Academy","East"
"1100007026","Student 07026","M","Mongar","Ngatshang","Gyalpozhing Academy","East"
"1100007027","Student 07027","M","Mongar","Ngatshang","Gyalpozhing Academy","East"
"1100007028","Student 07028","M","Mongar","Ngatshang","Gyalpozhing Academy","East"
"1100007029","Student 07029","F","Mongar","Ngatshang","Gyalpozhing Academy","East"
"1100007030","Student 07030","F","Mongar","Ngatshang","Gyalpozhing Academy","East"
"1100007031","Student 07031","F","Mongar","Ngatshang","Gyalpozhing Academy","East"
"1100007032","Student 07032","F","Mongar","Ngatshang","Gyalpozhing Academy","East"
"1100007033","Student 07033","F","Mongar","Ngatshang","Gyalpozhing Academy","East"
"1100007034","Student 07034","M","Mongar","Ngatshang","Gyalpozhing Academy","East"
"1100007035","Student 07035","F","Mongar","Ngatshang","Gyalpozhing Academy","East"
"1100007036","Student 07036","F","Mongar","Ngatshang","Gyalpozhing Academy","East"
"1100007037","Student 07037","M","Mongar","Ngatshang","Gyalpozhing Academy","East"
"1100007038","Student 07038","F","Mongar","Ngatshang","Gyalpozhing Academy","East"
"1100007039","Student 07039","F","Mongar","Ngatshang","Gyalpozhing Academy","East"
"1100007040","Student 07040","F","Mongar","Ngatshang","Gyalpozhing Academy","East"
"1100007041","Student 07041","F","Mongar","Ngatshang","Gyalpozhing Academy","East"
"1100007042","Student 07042","F","Mongar","Ngatshang","Gyalpozhing Academy","East"
"1100007047","Student 07047","M","Mongar","Drametse","Gyalpozhing Academy","East"
"1100007048","Student 07048","M","Mongar","Drametse","Gyalpozhing Academy","East"
"1100007049","Student 07049","M","Mongar","Drametse","Gyalpozhing Academy","East"
"1100007050","Student 07050","M","Mongar","Drametse","Gyalpozhing Academy","East"
"1100007051","Student 07051","M","Mongar","Drametse","Gyalpozhing Academy","East"
"1100007053","Student 07053","M","Mongar","Drametse","Gyalpozhing Academy","East"
"1100007054","Student 07054","M","Mongar","Drametse","Gyalpozhing Academy","East"
"1100007056","Student 07056","M","Mongar","Drametse","Gyalpozhing Academy","East"
"1100007058","Student 07058","M","Mongar","Drametse","Gyalpozhing Academy","East"
"1100007059","Student 07059","M","Mongar","Drametse","Gyalpozhing Academy","East"
"1100007060","Student 07060","M","Mongar","Drametse","Gyalpozhing Academy","East"
"1100007068","Student 07068","M","Mongar","Drametse","Gyalpozhing Academy","East"
"1100007069","Student 07069","M","Mongar","Drametse","Gyalpozhing Academy","East"
"1100007072","Student 07072","M","Mongar","Drametse","Gyalpozhing Academy","East"
"1100007076","Student 07076","M","Mongar","Drametse","Gyalpozhing Academy","East"
"1100007078","Student 07078","M","Mongar","Drametse","Gyalpozhing Academy","East"
"1100007079","Student 07079","M","Mongar","Drametse","Gyalpozhing Academy","East"
"1100007080","Student 07080","M","Mongar","Drametse","Gyalpozhing Academy","East"
"1100007081","Student 07081","M","Mongar","Drametse","Gyalpozhing Academy","East"
"1100007194","Student 07194","M","Sarpang","Gelephu","Gyalpozhing Academy","South"
"1100007195","Student 07195","M","Sarpang","Gelephu","Gyalpozhing Academy","South"
"1100007196","Student 07196","M","Sarpang","Gelephu","Gyalpozhing Academy","South"
"1100007197","Student 07197","M","Sarpang","Gelephu","Gyalpozhing Academy","South"
"1100007201","Student 07201","M","Sarpang","Gelephu","Gyalpozhing Academy","South"
"1100007202","Student 07202","M","Sarpang","Gelephu","Gyalpozhing Academy","South"
"1100007203","Student 07203","M","Sarpang","Gelephu","Gyalpozhing Academy","South"
"1100007204","Student 07204","M","Sarpang","Gelephu","Gyalpozhing Academy","South"
"1100007205","Student 07205","M","Sarpang","Gelephu","Gyalpozhing Academy","South"
"1100007206","Student 07206","M","Sarpang","Gelephu","Gyalpozhing Academy","South"
"1100007207","Student 07207","M","Sarpang","Gelephu","Gyalpozhing Academy","South"
"1100007208","Student 07208","M","Sarpang","Gelephu","Gyalpozhing Academy","South"
"1100007209","Student 07209","M","Sarpang","Gelephu","Gyalpozhing Academy","South"
"1100007210","Student 07210","M","Sarpang","Gelephu","Gyalpozhing Academy","South"
"1100007215","Student 07215","M","Sarpang","Gelephu","Gyalpozhing Academy","South"
"1100007216","Student 07216","M","Sarpang","Gelephu","Gyalpozhing Academy","South"
"1100007217","Student 07217","M","Sarpang","Gelephu","Gyalpozhing Academy","South"
"1100007218","Student 07218","M","Sarpang","Gelephu","Gyalpozhing Academy","South"
"1100007219","Student 07219","M","Sarpang","Gelephu","Gyalpozhing Academy","South"
"1100007221","Student 07221","M","Sarpang","Gelephu","Gyalpozhing Academy","South"
"1100007222","Student 07222","M","Sarpang","Gelephu","Gyalpozhing Academy","South"
"1100007223","Student 07223","M","Sarpang","Gelephu","Gyalpozhing Academy","South"
"1100007224","Student 07224","M","Sarpang","Gelephu","Gyalpozhing Academy","South"
"1100008613","Student 08613","M","Mongar","Mongar","Gyalpozhing Academy","East"
"1100008614","Student 08614","M","Mongar","Mongar","Gyalpozhing Academy","East"
"1100008615","Student 08615","M","Mongar","Mongar","Gyalpozhing Academy","East"
"1100008616","Student 08616","M","Mongar","Mongar","Gyalpozhing Academy","East"
"1100008617","Student 08617","M","Mongar","Mongar","Gyalpozhing Academy","East"
"1100008618","Student 08618","M","Mongar","Mongar","Gyalpozhing Academy","East"
"1100008619","Student 08619","M","Mongar","Mongar","Gyalpozhing Academy","East"
"1100008620","Student 08620","M","Mongar","Mongar","Gyalpozhing Academy","East"
"1100008621","Student 08621","M","Mongar","Mongar","Gyalpozhing Academy","East"
"1100008622","Student 08622","M","Mongar","Mongar","Gyalpozhing Academy","East"
"1100008623","Student 08623","M","Mongar","Mongar","Gyalpozhing Academy","East"
"1100008624","Student 08624","M","Mongar","Mongar","Gyalpozhing Academy","East"
"1100008625","Student 08625","F","Mongar","Mongar","Gyalpozhing Academy","East"
"1100008626","Student 08626","F","Mongar","Mongar","Gyalpozhing Academy","East"
"1100008627","Student 08627","F","Mongar","Mongar","Gyalpozhing Academy","East"
"1100008628","Student 08628","F","Mongar","Mongar","Gyalpozhing Academy","East"
"1100008629","Student 08629","F","Mongar","Mongar","Gyalpozhing Academy","East"
"1100008630","Student 08630","F","Mongar","Mongar","Gyalpozhing Academy","East"
"1100008631","Student 08631","F","Mongar","Mongar","Gyalpozhing Academy","East"
"1100008632","Student 08632","F","Mongar","Mongar","Gyalpozhing Academy","East"
"1100008633","Student 08633","F","Mongar","Mongar","Gyalpozhing Academy","East"
"1100008634","Student 08634","F","Mongar","Mongar","Gyalpozhing Academy","East"
"1100008635","Student 08635","F","Mongar","Mongar","Gyalpozhing Academy","East"
"1100008636","Student 08636","F","Mongar","Mongar","Gyalpozhing Academy","East"
"1100008637","Student 08637","M","Mongar","Mongar","Gyalpozhing Academy","East"
"1100008638","Student 08638","M","Mongar","Mongar","Gyalpozhing Academy","East"
"1100008639","Student 08639","M","Mongar","Mongar","Gyalpozhing Academy","East"
"1100008640","Student 08640","M","Mongar","Mongar","Gyalpozhing Academy","East"
"1100008641","Student 08641","F","Mongar","Mongar","Gyalpozhing Academy","East"
"1100008642","Student 08642","F","Mongar","Mongar","Gyalpozhing Academy","East"
"1100008643","Student 08643","F","Mongar","Mongar","Gyalpozhing Academy","East"
"1100008644","Student 08644","F","Mongar","Mongar","Gyalpozhing Academy","East"
"1100008645","Student 08645","F","Mongar","Mongar","Gyalpozhing Academy","East"
"1100008646","Student 08646","F","Mongar","Mongar","Gyalpozhing Academy","East"
"1100008647","Student 08647","F","Mongar","Mongar","Gyalpozhing Academy","East"
"1100008648","Student 08648","F","Mongar","Mongar","Gyalpozhing Academy","East"
"1100008649","Student 08649","F","Mongar","Mongar","Gyalpozhing Academy","East"
"1100008650","Student 08650","M","Mongar","Mongar","Gyalpozhing Academy","East"
"1100008651","Student 08651","F","Mongar","Mongar","Gyalpozhing Academy","East"
"1100008652","Student 08652","F","Mongar","Mongar","Gyalpozhing Academy","East"
"1100008653","Student 08653","F","Mongar","Mongar","Gyalpozhing Academy","East"
"1100008654","Student 08654","F","Mongar","Mongar","Gyalpozhing Academy","East"
"1100008655","Student 08655","M","Mongar","Mongar","Gyalpozhing Academy","East"
"1100008656","Student 08656","M","Mongar","Mongar","Gyalpozhing Academy","East"
"1100008657","Student 08657","M","Mongar","Mongar","Gyalpozhing Academy","East"
"1100008658","Student 08658","F","Mongar","Mongar","Gyalpozhing Academy","East"
"1100008659","Student 08659","F","Mongar","Mongar","Gyalpozhing Academy","East"
"1100008660","Student 08660","M","Mongar","Mongar","Gyalpozhing Academy","East"
"1100008661","Student 08661","M","Mongar","Mongar","Gyalpozhing Academy","East"
"1100008662","Student 08662","M","Mongar","Mongar","Gyalpozhing Academy","East"
"1100008663","Student 08663","F","Mongar","Mongar","Gyalpozhing Academy","East"
"1100008664","Student 08664","M","Mongar","Mongar","Gyalpozhing Academy","East"
"1100008665","Student 08665","F","Mongar","Mongar","Gyalpozhing Academy","East"
"1100008666","Student 08666","F","Mongar","Mongar","Gyalpozhing Academy","East"
"1100008667","Student 08667","F","Mongar","Mongar","Gyalpozhing Academy","East"
"1100008668","Student 08668","M","Mongar","Mongar","Gyalpozhing Academy","East"
"1100008669","Student 08669","F","Mongar","Mongar","Gyalpozhing Academy","East"
"1100008670","Student 08670","F","Mongar","Mongar","Gyalpozhing Academy","East"
"1100008671","Student 08671","F","Mongar","Mongar","Gyalpozhing Academy","East"
"1100008672","Student 08672","M","Mongar","Mongar","Gyalpozhing Academy","East"
"1100008673","Student 08673","F","Mongar","Mongar","Gyalpozhing Academy","East"
"1100008674","Student 08674","F","Mongar","Mongar","Gyalpozhing Academy","East"
"1100008678","Student 08678","M","Mongar","Mongar","Gyalpozhing Academy","East"
"1100008679","Student 08679","M","Mongar","Mongar","Gyalpozhing Academy","East"
"1100008681","Student 08681","M","Mongar","Mongar","Gyalpozhing Academy","East"
"1100008683","Student 08683","M","Mongar","Mongar","Gyalpozhing Academy","East"
"1100008684","Student 08684","M","Mongar","Mongar","Gyalpozhing Academy","East"
"1100008685","Student 08685","M","Mongar","Mongar","Gyalpozhing Academy","East"
"1100008687","Student 08687","M","Mongar","Mongar","Gyalpozhing Academy","East"
"1100008688","Student 08688","M","Mongar","Mongar","Gyalpozhing Academy","East"
"1100008693","Student 08693","M","Mongar","Mongar","Gyalpozhing Academy","East"
"1100008694","Student 08694","M","Mongar","Mongar","Gyalpozhing Academy","East"
"1100008698","Student 08698","M","Mongar","Mongar","Gyalpozhing Academy","East"
"1100008700","Student 08700","M","Mongar","Mongar","Gyalpozhing Academy","East"
"1100008701","Student 08701","M","Mongar","Mongar","Gyalpozhing Academy","East"
"1100008703","Student 08703","M","Mongar","Mongar","Gyalpozhing Academy","East"
"1100008706","Student 08706","M","Mongar","Mongar","Gyalpozhing Academy","East"
"1100008710","Student 08710","M","Mongar","Mongar","Gyalpozhing Academy","East"
"1100008713","Student 08713","M","Mongar","Mongar","Gyalpozhing Academy","East"
"1100008715","Student 08715","M","Mongar","Mongar","Gyalpozhing Academy","East"
"1100008716","Student 08716","M","Mongar","Mongar","Gyalpozhing Academy","East"
"1100008718","Student 08718","M","Mongar","Mongar","Gyalpozhing Academy","East"
"1100008720","Student 08720","M","Mongar","Mongar","Gyalpozhing Academy","East"
"1100008721","Student 08721","M","Mongar","Mongar","Gyalpozhing Academy","East"
"1100008722","Student 08722","M","Mongar","Mongar","Gyalpozhing Academy","East"
"1100009149","Student 09149","M","Mongar","Jurmey","Gyalpozhing Academy","East"
"1100009150","Student 09150","M","Mongar","Jurmey","Gyalpozhing Academy","East"
"1100009151","Student 09151","M","Mongar","Jurmey","Gyalpozhing Academy","East"
"1100009152","Student 09152","M","Mongar","Jurmey","Gyalpozhing Academy","East"
"1100009153","Student 09153","F","Mongar","Jurmey","Gyalpozhing Academy","East"
"1100009154","Student 09154","F","Mongar","Jurmey","Gyalpozhing Academy","East"
"1100009155","Student 09155","F","Mongar","Jurmey","Gyalpozhing Academy","East"
"1100009156","Student 09156","F","Mongar","Jurmey","Gyalpozhing Academy","East"
"1100009157","Student 09157","F","Mongar","Jurmey","Gyalpozhing Academy","East"
"1100009158","Student 09158","F","Mongar","Jurmey","Gyalpozhing Academy","East"
"1100009159","Student 09159","F","Mongar","Jurmey","Gyalpozhing Academy","East"
"1100009160","Student 09160","F","Mongar","Jurmey","Gyalpozhing Academy","East"
"1100009161","Student 09161","F","Mongar","Jurmey","Gyalpozhing Academy","East"
"1100009162","Student 09162","F","Mongar","Jurmey","Gyalpozhing Academy","East"
"1100009163","Student 09163","F","Mongar","Jurmey","Gyalpozhing Academy","East"
"1100009164","Student 09164","F","Mongar","Jurmey","Gyalpozhing Academy","East"
"1100009165","Student 09165","F","Mongar","Jurmey","Gyalpozhing Academy","East"
"1100009166","Student 09166","F","Mongar","Jurmey","Gyalpozhing Academy","East"
"1100009167","Student 09167","F","Mongar","Jurmey","Gyalpozhing Academy","East"
"1100009168","Student 09168","F","Mongar","Jurmey","Gyalpozhing Academy","East"
"1100009169","Student 09169","F","Mongar","Jurmey","Gyalpozhing Academy","East"
"1100009170","Student 09170","F","Mongar","Jurmey","Gyalpozhing Academy","East"
"1100009171","Student 09171","F","Mongar","Jurmey","Gyalpozhing Academy","East"
"1100009172","Student 09172","F","Mongar","Jurmey","Gyalpozhing Academy","East"
"1100009173","Student 09173","F","Mongar","Jurmey","Gyalpozhing Academy","East"
"1100009174","Student 09174","F","Mongar","Jurmey","Gyalpozhing Academy","East"
"1100009175","Student 09175","F","Mongar","Jurmey","Gyalpozhing Academy","East"
"1100009176","Student 09176","F","Mongar","Jurmey","Gyalpozhing Academy","East"
"1100009177","Student 09177","F","Mongar","Jurmey","Gyalpozhing Academy","East"
"1100009178","Student 09178","F","Mongar","Jurmey","Gyalpozhing Academy","East"
"1100009179","Student 09179","F","Mongar","Jurmey","Gyalpozhing Academy","East"
"1100009180","Student 09180","M","Mongar","Jurmey","Gyalpozhing Academy","East"
"1100009181","Student 09181","M","Mongar","Jurmey","Gyalpozhing Academy","East"
"1100009182","Student 09182","M","Mongar","Jurmey","Gyalpozhing Academy","East"
"1100009183","Student 09183","M","Mongar","Jurmey","Gyalpozhing Academy","East"
"1100009184","Student 09184","M","Mongar","Jurmey","Gyalpozhing Academy","East"
"1100009185","Student 09185","M","Mongar","Jurmey","Gyalpozhing Academy","East"
"1100009186","Student 09186","M","Mongar","Jurmey","Gyalpozhing Academy","East"
"1100009187","Student 09187","M","Mongar","Jurmey","Gyalpozhing Academy","East"
"1100009188","Student 09188","M","Mongar","Jurmey","Gyalpozhing Academy","East"
"1100009189","Student 09189","M","Mongar","Jurmey","Gyalpozhing Academy","East"
"1100009190","Student 09190","M","Mongar","Jurmey","Gyalpozhing Academy","East"
"1100009191","Student 09191","F","Mongar","Jurmey","Gyalpozhing Academy","East"
"1100009192","Student 09192","F","Mongar","Jurmey","Gyalpozhing Academy","East"
"1100009193","Student 09193","F","Mongar","Jurmey","Gyalpozhing Academy","East"
"1100009194","Student 09194","F","Mongar","Jurmey","Gyalpozhing Academy","East"
"1100009195","Student 09195","F","Mongar","Jurmey","Gyalpozhing Academy","East"
"1100009196","Student 09196","F","Mongar","Jurmey","Gyalpozhing Academy","East"
"1100009197","Student 09197","F","Mongar","Jurmey","Gyalpozhing Academy","East"
"1100009198","Student 09198","F","Mongar","Jurmey","Gyalpozhing Academy","East"
"1100009199","Student 09199","F","Mongar","Jurmey","Gyalpozhing Academy","East"
"1100009200","Student 09200","F","Mongar","Jurmey","Gyalpozhing Academy","East"
"1100009201","Student 09201","F","Mongar","Jurmey","Gyalpozhing Academy","East"
"1100009202","Student 09202","F","Mongar","Jurmey","Gyalpozhing Academy","East"
"1100009203","Student 09203","F","Mongar","Jurmey","Gyalpozhing Academy","East"
"1100009204","Student 09204","F","Mongar","Jurmey","Gyalpozhing Academy","East"
"1100009886","Student 09886","F","Haa","Bji","Gyalpozhing Academy","West"
"1100009887","Student 09887","F","Haa","Bji","Gyalpozhing Academy","West"
"1100009888","Student 09888","F","Haa","Bji","Gyalpozhing Academy","West"
"1100009889","Student 09889","F","Haa","Bji","Gyalpozhing Academy","West"
"1100009890","Student 09890","F","Haa","Bji","Gyalpozhing Academy","West"
"1100009891","Student 09891","F","Haa","Bji","Gyalpozhing Academy","West"
"1100009892","Student 09892","F","Haa","Bji","Gyalpozhing Academy","West"
"1100009898","Student 09898","M","Haa","Bji","Gyalpozhing Academy","West"
"1100009899","Student 09899","M","Haa","Bji","Gyalpozhing Academy","West"
"1100009900","Student 09900","M","Haa","Bji","Gyalpozhing Academy","West"
"1100009901","Student 09901","M","Haa","Bji","Gyalpozhing Academy","West"
"1100009902","Student 09902","M","Haa","Bji","Gyalpozhing Academy","West"
"1100009903","Student 09903","M","Haa","Bji","Gyalpozhing Academy","West"
"1100009904","Student 09904","M","Haa","Bji","Gyalpozhing Academy","West"
"1100009905","Student 09905","M","Haa","Bji","Gyalpozhing Academy","West"
"1100009906","Student 09906","M","Haa","Bji","Gyalpozhing Academy","West"
"1100009907","Student 09907","F","Haa","Bji","Gyalpozhing Academy","West"
"1100009908","Student 09908","F","Haa","Bji","Gyalpozhing Academy","West"
"1100009909","Student 09909","F","Haa","Bji","Gyalpozhing Academy","West"
"1100009910","Student 09910","F","Haa","Bji","Gyalpozhing Academy","West"
"1100009911","Student 09911","F","Haa","Bji","Gyalpozhing Academy","West"
"1100009912","Student 09912","M","Haa","Bji","Gyalpozhing Academy","West"
"1100009913","Student 09913","M","Haa","Bji","Gyalpozhing Academy","West"
"1100009914","Student 09914","M","Haa","Bji","Gyalpozhing Academy","West"
"1100009915","Student 09915","M","Haa","Bji","Gyalpozhing Academy","West"
"1100009916","Student 09916","M","Haa","Bji","Gyalpozhing Academy","West"
"1100009917","Student 09917","M","Haa","Bji","Gyalpozhing Academy","West"
"1100009918","Student 09918","M","Haa","Bji","Gyalpozhing Academy","West"
"1100009919","Student 09919","M","Haa","Bji","Gyalpozhing Academy","West"
"1100009920","Student 09920","M","Haa","Bji","Gyalpozhing Academy","West"
"1100009921","Student 09921","M","Haa","Bji","Gyalpozhing Academy","West"
"1100009922","Student 09922","M","Haa","Bji","Gyalpozhing Academy","West"
"1100009923","Student 09923","M","Haa","Bji","Gyalpozhing Academy","West"
"1100009924","Student 09924","M","Haa","Bji","Gyalpozhing Academy","West"
"1100009925","Student 09925","M","Haa","Bji","Gyalpozhing Academy","West"
"1100009926","Student 09926","M","Haa","Bji","Gyalpozhing Academy","West"
"1100009927","Student 09927","M","Haa","Bji","Gyalpozhing Academy","West"
"1100009928","Student 09928","F","Haa","Bji","Gyalpozhing Academy","West"
"1100009929","Student 09929","F","Haa","Bji","Gyalpozhing Academy","West"
"1100009930","Student 09930","F","Haa","Bji","Gyalpozhing Academy","West"
"1100009931","Student 09931","F","Haa","Bji","Gyalpozhing Academy","West"
"1100009932","Student 09932","F","Haa","Bji","Gyalpozhing Academy","West"
"1100009933","Student 09933","F","Haa","Bji","Gyalpozhing Academy","West"
"1100009934","Student 09934","F","Haa","Bji","Gyalpozhing Academy","West"
"1100009935","Student 09935","F","Haa","Bji","Gyalpozhing Academy","West"
"1100009936","Student 09936","F","Haa","Bji","Gyalpozhing Academy","West"
"1100009937","Student 09937","F","Haa","Bji","Gyalpozhing Academy","West"
"1100009938","Student 09938","M","Haa","Bji","Gyalpozhing Academy","West"
"1100009939","Student 09939","M","Haa","Bji","Gyalpozhing Academy","West"
"1100009940","Student 09940","M","Haa","Bji","Gyalpozhing Academy","West"
"1100009941","Student 09941","M","Haa","Bji","Gyalpozhing Academy","West"
"1100009942","Student 09942","M","Haa","Bji","Gyalpozhing Academy","West"
"1100009943","Student 09943","M","Haa","Bji","Gyalpozhing Academy","West"
"1100009944","Student 09944","M","Haa","Bji","Gyalpozhing Academy","West"
"1100009945","Student 09945","M","Haa","Bji","Gyalpozhing Academy","West"
"1100009946","Student 09946","M","Haa","Bji","Gyalpozhing Academy","West"
"1100009947","Student 09947","M","Haa","Bji","Gyalpozhing Academy","West"
"1100009948","Student 09948","F","Haa","Bji","Gyalpozhing Academy","West"
"1100009949","Student 09949","F","Haa","Bji","Gyalpozhing Academy","West"
"1100009950","Student 09950","F","Haa","Bji","Gyalpozhing Academy","West"
"1100009951","Student 09951","F","Haa","Bji","Gyalpozhing Academy","West"
"1100009952","Student 09952","F","Haa","Bji","Gyalpozhing Academy","West"
"1100009953","Student 09953","M","Haa","Bji","Gyalpozhing Academy","West"
"1100009954","Student 09954","M","Haa","Bji","Gyalpozhing Academy","West"
"1100009955","Student 09955","M","Haa","Bji","Gyalpozhing Academy","West"
"1100009956","Student 09956","M","Haa","Bji","Gyalpozhing Academy","West"
"1100009957","Student 09957","M","Haa","Bji","Gyalpozhing Academy","West"
"1100009958","Student 09958","M","Haa","Bji","Gyalpozhing Academy","West"
"1100009959","Student 09959","M","Haa","Bji","Gyalpozhing Academy","West"
"1100009960","Student 09960","M","Haa","Bji","Gyalpozhing Academy","West"
"1100009961","Student 09961","M","Haa","Bji","Gyalpozhing Academy","West"
"1100009962","Student 09962","M","Haa","Bji","Gyalpozhing Academy","West"
"1100009963","Student 09963","M","Haa","Bji","Gyalpozhing Academy","West"
"1100009964","Student 09964","M","Haa","Bji","Gyalpozhing Academy","West"
"1100009965","Student 09965","F","Haa","Bji","Gyalpozhing Academy","West"
"1100009966","Student 09966","F","Haa","Bji","Gyalpozhing Academy","West"
"1100009967","Student 09967","F","Haa","Bji","Gyalpozhing Academy","West"
"1100009968","Student 09968","F","Haa","Bji","Gyalpozhing Academy","West"
"1100009969","Student 09969","F","Haa","Bji","Gyalpozhing Academy","West"
"1100009970","Student 09970","F","Haa","Bji","Gyalpozhing Academy","West"
"1100009971","Student 09971","F","Haa","Bji","Gyalpozhing Academy","West"
"1100009972","Student 09972","F","Haa","Bji","Gyalpozhing Academy","West"
"1100009973","Student 09973","F","Haa","Bji","Gyalpozhing Academy","West"
"1100009974","Student 09974","F","Haa","Bji","Gyalpozhing Academy","West"
"1100009975","Student 09975","F","Haa","Bji","Gyalpozhing Academy","West"
"1100009976","Student 09976","F","Haa","Bji","Gyalpozhing Academy","West"
"1100009998","Student 09998","F","Haa","Bji","Gyalpozhing Academy","West"
"1100009999","Student 09999","F","Haa","Bji","Gyalpozhing Academy","West"
"1100010000","Student 10000","F","Haa","Bji","Gyalpozhing Academy","West"
"1100010001","Student 10001","F","Haa","Bji","Gyalpozhing Academy","West"
"1100010002","Student 10002","F","Haa","Bji","Gyalpozhing Academy","West"
"1100010003","Student 10003","F","Haa","Bji","Gyalpozhing Academy","West"
"1100010004","Student 10004","F","Haa","Bji","Gyalpozhing Academy","West"
"1100010005","Student 10005","F","Haa","Bji","Gyalpozhing Academy","West"
"1100010006","Student 10006","F","Haa","Bji","Gyalpozhing Academy","West"
"1100010007","Student 10007","F","Haa","Bji","Gyalpozhing Academy","West"
"1100010008","Student 10008","F","Haa","Bji","Gyalpozhing Academy","West"
"1100010009","Student 10009","F","Haa","Bji","Gyalpozhing Academy","West"
"1100010010","Student 10010","F","Haa","Bji","Gyalpozhing Academy","West"
"1100010011","Student 10011","F","Haa","Bji","Gyalpozhing Academy","West"
"1100010012","Student 10012","F","Haa","Bji","Gyalpozhing Academy","West"
"1100010013","Student 10013","F","Haa","Bji","Gyalpozhing Academy","West"
"1100010014","Student 10014","F","Haa","Bji","Gyalpozhing Academy","West"
"1100010015","Student 10015","F","Haa","Bji","Gyalpozhing Academy","West"
"1100010016","Student 10016","F","Haa","Bji","Gyalpozhing Academy","West"
"1100010017","Student 10017","F","Haa","Bji","Gyalpozhing Academy","West"
"1100010018","Student 10018","M","Haa","Bji","Gyalpozhing Academy","West"
"1100010019","Student 10019","M","Haa","Bji","Gyalpozhing Academy","West"
"1100010020","Student 10020","M","Haa","Bji","Gyalpozhing Academy","West"
"1100010021","Student 10021","M","Haa","Bji","Gyalpozhing Academy","West"
"1100010022","Student 10022","M","Haa","Bji","Gyalpozhing Academy","West"
"1100010023","Student 10023","M","Haa","Bji","Gyalpozhing Academy","West"
"1100010024","Student 10024","M","Haa","Bji","Gyalpozhing Academy","West"
"1100010025","Student 10025","M","Haa","Bji","Gyalpozhing Academy","West"
"1100010026","Student 10026","M","Haa","Bji","Gyalpozhing Academy","West"
"1100010027","Student 10027","M","Haa","Bji","Gyalpozhing Academy","West"
"1100010028","Student 10028","F","Haa","Bji","Gyalpozhing Academy","West"
"1100010029","Student 10029","F","Haa","Bji","Gyalpozhing Academy","West"
"1100010030","Student 10030","F","Haa","Bji","Gyalpozhing Academy","West"
"1100010031","Student 10031","F","Haa","Bji","Gyalpozhing Academy","West"
"1100010032","Student 10032","F","Haa","Bji","Gyalpozhing Academy","West"
"1100010049","Student 10049","M","Haa","Bji","Gyalpozhing Academy","West"
"1100010050","Student 10050","M","Haa","Bji","Gyalpozhing Academy","West"
"1100010051","Student 10051","M","Haa","Bji","Gyalpozhing Academy","West"
"1100010052","Student 10052","M","Haa","Bji","Gyalpozhing Academy","West"
"1100010053","Student 10053","M","Haa","Bji","Gyalpozhing Academy","West"
"1100010054","Student 10054","M","Haa","Bji","Gyalpozhing Academy","West"
"1100010055","Student 10055","M","Haa","Bji","Gyalpozhing Academy","West"
"1100010056","Student 10056","M","Haa","Bji","Gyalpozhing Academy","West"
"1100010057","Student 10057","M","Haa","Bji","Gyalpozhing Academy","West"
"1100010058","Student 10058","M","Haa","Bji","Gyalpozhing Academy","West"
"1100010059","Student 10059","M","Haa","Bji","Gyalpozhing Academy","West"
"1100010060","Student 10060","M","Haa","Bji","Gyalpozhing Academy","West"
"1100010061","Student 10061","M","Haa","Bji","Gyalpozhing Academy","West"
"1100010062","Student 10062","M","Haa","Bji","Gyalpozhing Academy","West"
"1100010063","Student 10063","M","Haa","Bji","Gyalpozhing Academy","West"
"1100010064","Student 10064","M","Haa","Bji","Gyalpozhing Academy","West"
"1100010065","Student 10065","M","Haa","Bji","Gyalpozhing Academy","West"
"1100010066","Student 10066","M","Haa","Bji","Gyalpozhing Academy","West"
"1100010089","Student 10089","M","Haa","Bji","Gyalpozhing Academy","West"